%YAML 1.1
%TAG !u! tag:unity3d.com,2011:
--- !u!78 &1
TagManager:
  serializedVersion: 2
  tags:
  - Mouse
  - MinuteHand
  - HourHand
  - GameManager
  - ClockFace
  - GrabbableObject
  - Receiver
  - Hiding Area
  - Book
  layers:
  - Default
  - TransparentFX
  - Ignore Raycast
  - 
  - Water
  - UI
  - 
  - 
  - 
  - 
  - 
  - 
  - 
  - 
  - 
  - 
  - 
  - 
  - 
  - 
  - 
  - 
  - 
  - 
  - 
  - 
  - 
  - 
  - 
  - 
  - 
  - 
  m_SortingLayers:
  - name: Background
    uniqueID: 677197243
    locked: 0
  - name: Default
    uniqueID: 0
    locked: 0
  - name: Grabbables
    uniqueID: 1394370865
    locked: 0
